(footprint "LOGO" (version 20221018) (generator bitmap2component)
  (layer "F.Cu")
  (attr board_only exclude_from_pos_files exclude_from_bom)
  (fp_text reference "G***" (at 0 0) (layer "F.SilkS")
      (effects (font (size 1.5 1.5) (thickness 0.3)))
    (tstamp a73fb1eb-968f-4104-b796-cf46e13681b2)
  )
  (fp_text value "LOGO" (at 0.75 0) (layer "F.SilkS") hide
      (effects (font (size 1.5 1.5) (thickness 0.3)))
    (tstamp f191dac1-05fa-452b-ae9c-c683f69926c8)
  )
  (fp_poly
    (pts
      (xy -1.512794 4.759073)
      (xy -1.514484 4.793627)
      (xy -1.539055 4.948360)
      (xy -1.607780 5.017462)
      (xy -1.665597 5.031449)
      (xy -1.794222 5.010818)
      (xy -1.841721 4.958158)
      (xy -1.859255 4.824122)
      (xy -1.849920 4.720336)
      (xy -1.830662 4.651705)
      (xy -1.818661 4.699537)
      (xy -1.813870 4.782628)
      (xy -1.792924 4.925387)
      (xy -1.735424 4.971585)
      (xy -1.696925 4.968633)
      (xy -1.605320 4.897008)
      (xy -1.546091 4.761739)
      (xy -1.518385 4.646467)
      (xy -1.509061 4.643787)
    )

    (stroke (width 0.000000) (type solid)) (fill solid) (layer "F.SilkS") (tstamp 71e74bde-a333-4658-b66e-7d09186c7cc6))
  (fp_poly
    (pts
      (xy -1.276924 4.660351)
      (xy -1.284319 4.795965)
      (xy -1.286724 4.809191)
      (xy -1.325323 4.980327)
      (xy -1.352183 5.028013)
      (xy -1.366841 4.952105)
      (xy -1.369607 4.835130)
      (xy -1.355006 4.687036)
      (xy -1.318898 4.609975)
      (xy -1.308909 4.606862)
    )

    (stroke (width 0.000000) (type solid)) (fill solid) (layer "F.SilkS") (tstamp 61b7661d-06ec-4c4c-bb1e-f24a4998c3bc))
  (fp_poly
    (pts
      (xy -0.998845 4.697404)
      (xy -0.996078 4.814379)
      (xy -1.010679 4.962473)
      (xy -1.046787 5.039534)
      (xy -1.056777 5.042647)
      (xy -1.088761 4.989158)
      (xy -1.081366 4.853544)
      (xy -1.078962 4.840318)
      (xy -1.040362 4.669182)
      (xy -1.013503 4.621496)
    )

    (stroke (width 0.000000) (type solid)) (fill solid) (layer "F.SilkS") (tstamp 0bf52b73-041b-466a-b664-7548281251f2))
  (fp_poly
    (pts
      (xy -0.809313 4.637990)
      (xy -0.764461 4.722149)
      (xy -0.747058 4.859556)
      (xy -0.765424 4.989093)
      (xy -0.809313 5.042647)
      (xy -0.850188 4.987855)
      (xy -0.870926 4.852846)
      (xy -0.871568 4.821080)
      (xy -0.856822 4.679427)
      (xy -0.817811 4.634373)
    )

    (stroke (width 0.000000) (type solid)) (fill solid) (layer "F.SilkS") (tstamp 15edd6bc-eff0-4c56-bee2-d828b046a399))
  (fp_poly
    (pts
      (xy -0.613126 4.651092)
      (xy -0.557047 4.769429)
      (xy -0.488062 4.949264)
      (xy -0.394796 4.772560)
      (xy -0.323030 4.660601)
      (xy -0.273298 4.624865)
      (xy -0.270684 4.626701)
      (xy -0.274110 4.698020)
      (xy -0.325677 4.821453)
      (xy -0.399618 4.948910)
      (xy -0.470168 5.032304)
      (xy -0.493547 5.042647)
      (xy -0.548837 4.990169)
      (xy -0.610835 4.862182)
      (xy -0.616739 4.845787)
      (xy -0.657602 4.691366)
      (xy -0.652922 4.622022)
    )

    (stroke (width 0.000000) (type solid)) (fill solid) (layer "F.SilkS") (tstamp c448f405-17af-4549-9bbf-fc313fbdc315))
  (fp_poly
    (pts
      (xy 0.078603 4.626199)
      (xy 0.055231 4.647423)
      (xy 0.046692 4.649776)
      (xy -0.045591 4.698868)
      (xy -0.062255 4.731372)
      (xy -0.011036 4.789757)
      (xy 0.046692 4.812968)
      (xy 0.123417 4.836628)
      (xy 0.079208 4.846382)
      (xy 0.046692 4.848660)
      (xy -0.049770 4.882724)
      (xy -0.043871 4.942506)
      (xy 0.057380 4.994220)
      (xy 0.077819 4.998711)
      (xy 0.141816 5.017888)
      (xy 0.087448 5.030041)
      (xy 0.015564 5.034169)
      (xy -0.119994 5.029740)
      (xy -0.175672 4.976419)
      (xy -0.186748 4.837690)
      (xy -0.186764 4.824755)
      (xy -0.176437 4.678759)
      (xy -0.125905 4.620709)
      (xy -0.015563 4.614084)
    )

    (stroke (width 0.000000) (type solid)) (fill solid) (layer "F.SilkS") (tstamp 6b9764c5-9e1e-4553-b2b6-bcccf3327710))
  (fp_poly
    (pts
      (xy 0.415175 4.617716)
      (xy 0.420221 4.618291)
      (xy 0.553745 4.663632)
      (xy 0.591422 4.762500)
      (xy 0.615576 4.906017)
      (xy 0.641787 4.964828)
      (xy 0.655490 5.032706)
      (xy 0.632884 5.042647)
      (xy 0.561522 4.993014)
      (xy 0.537781 4.949264)
      (xy 0.471919 4.866773)
      (xy 0.437739 4.855882)
      (xy 0.380785 4.906275)
      (xy 0.373530 4.949264)
      (xy 0.339914 5.032111)
      (xy 0.311275 5.042647)
      (xy 0.270434 4.987847)
      (xy 0.249676 4.852784)
      (xy 0.249020 4.820619)
      (xy 0.254448 4.731372)
      (xy 0.373530 4.731372)
      (xy 0.420904 4.791818)
      (xy 0.435785 4.793627)
      (xy 0.496231 4.746253)
      (xy 0.498040 4.731372)
      (xy 0.450665 4.670926)
      (xy 0.435785 4.669117)
      (xy 0.375339 4.716492)
      (xy 0.373530 4.731372)
      (xy 0.254448 4.731372)
      (xy 0.257948 4.673821)
      (xy 0.303800 4.617453)
    )

    (stroke (width 0.000000) (type solid)) (fill solid) (layer "F.SilkS") (tstamp e35b6fd6-c713-4dd9-b4da-bd2b72c8df6d))
  (fp_poly
    (pts
      (xy 0.980107 4.639140)
      (xy 0.934778 4.649600)
      (xy 0.828645 4.701357)
      (xy 0.822012 4.761844)
      (xy 0.916866 4.793466)
      (xy 0.927163 4.793627)
      (xy 1.034232 4.833658)
      (xy 1.094202 4.921147)
      (xy 1.074796 5.005433)
      (xy 0.990671 5.030641)
      (xy 0.876757 5.034169)
      (xy 0.771709 5.025951)
      (xy 0.786151 5.013200)
      (xy 0.856005 4.998711)
      (xy 0.975877 4.950510)
      (xy 0.976364 4.888698)
      (xy 0.865010 4.836129)
      (xy 0.770918 4.775377)
      (xy 0.776106 4.696335)
      (xy 0.869374 4.638133)
      (xy 0.924091 4.629707)
      (xy 1.012653 4.626572)
    )

    (stroke (width 0.000000) (type solid)) (fill solid) (layer "F.SilkS") (tstamp 668968af-d30a-47f0-8eba-7d40aafe1270))
  (fp_poly
    (pts
      (xy 1.226874 4.716534)
      (xy 1.236897 4.878748)
      (xy 1.225618 4.965554)
      (xy 1.208790 4.980107)
      (xy 1.199347 4.890705)
      (xy 1.198543 4.824755)
      (xy 1.204673 4.704193)
      (xy 1.218733 4.685902)
    )

    (stroke (width 0.000000) (type solid)) (fill solid) (layer "F.SilkS") (tstamp 8a6e4ded-a992-4469-ae79-feb4a040c369))
  (fp_poly
    (pts
      (xy 1.644020 4.692224)
      (xy 1.718307 4.829453)
      (xy 1.729718 4.856313)
      (xy 1.780555 4.989167)
      (xy 1.778854 5.026911)
      (xy 1.721887 4.988542)
      (xy 1.711928 4.980324)
      (xy 1.602243 4.926922)
      (xy 1.489063 4.969101)
      (xy 1.397234 5.004976)
      (xy 1.369608 4.983849)
      (xy 1.397205 4.862913)
      (xy 1.431655 4.793627)
      (xy 1.525245 4.793627)
      (xy 1.530181 4.850994)
      (xy 1.552699 4.855882)
      (xy 1.616094 4.810690)
      (xy 1.618628 4.793627)
      (xy 1.597387 4.732991)
      (xy 1.591174 4.731372)
      (xy 1.538023 4.774996)
      (xy 1.525245 4.793627)
      (xy 1.431655 4.793627)
      (xy 1.461725 4.733149)
      (xy 1.535761 4.641329)
      (xy 1.579835 4.625059)
    )

    (stroke (width 0.000000) (type solid)) (fill solid) (layer "F.SilkS") (tstamp c846a01a-807e-4413-8443-47b4ef3ba49a))
  (fp_poly
    (pts
      (xy 2.162248 4.645989)
      (xy 2.267108 4.740821)
      (xy 2.308917 4.857542)
      (xy 2.271182 4.962334)
      (xy 2.204958 5.004859)
      (xy 2.017087 5.049998)
      (xy 1.908687 5.003850)
      (xy 1.868504 4.860410)
      (xy 1.867647 4.824755)
      (xy 1.929902 4.824755)
      (xy 1.960391 4.948181)
      (xy 2.047752 4.980392)
      (xy 2.162260 4.940688)
      (xy 2.198524 4.894596)
      (xy 2.187021 4.779627)
      (xy 2.095009 4.690063)
      (xy 2.010834 4.669117)
      (xy 1.949785 4.722382)
      (xy 1.929902 4.824755)
      (xy 1.867647 4.824755)
      (xy 1.879998 4.676638)
      (xy 1.932692 4.616173)
      (xy 2.010834 4.606862)
    )

    (stroke (width 0.000000) (type solid)) (fill solid) (layer "F.SilkS") (tstamp 2551e2a8-7d64-4953-98e4-671c8bd47ee9))
  (fp_poly
    (pts
      (xy 2.616786 4.655905)
      (xy 2.694280 4.770987)
      (xy 2.765060 4.904040)
      (xy 2.800859 5.006996)
      (xy 2.801471 5.016050)
      (xy 2.762707 5.017099)
      (xy 2.703033 4.976196)
      (xy 2.596392 4.926446)
      (xy 2.485141 4.969101)
      (xy 2.393312 5.004976)
      (xy 2.365687 4.983849)
      (xy 2.391891 4.872709)
      (xy 2.427885 4.793627)
      (xy 2.521324 4.793627)
      (xy 2.526260 4.850994)
      (xy 2.548777 4.855882)
      (xy 2.612173 4.810690)
      (xy 2.614706 4.793627)
      (xy 2.593466 4.732991)
      (xy 2.587253 4.731372)
      (xy 2.534102 4.774996)
      (xy 2.521324 4.793627)
      (xy 2.427885 4.793627)
      (xy 2.452677 4.739157)
      (xy 2.521300 4.634853)
      (xy 2.560845 4.606862)
    )

    (stroke (width 0.000000) (type solid)) (fill solid) (layer "F.SilkS") (tstamp 5d34b477-dcfb-4b33-af6c-6bfba87cfb7b))
  (fp_poly
    (pts
      (xy 3.158327 4.645989)
      (xy 3.263186 4.740821)
      (xy 3.304996 4.857542)
      (xy 3.267260 4.962334)
      (xy 3.201036 5.004859)
      (xy 3.013166 5.049998)
      (xy 2.904765 5.003850)
      (xy 2.864583 4.860410)
      (xy 2.863726 4.824755)
      (xy 2.925981 4.824755)
      (xy 2.955847 4.947520)
      (xy 3.046816 4.980392)
      (xy 3.166896 4.950482)
      (xy 3.207813 4.915410)
      (xy 3.206432 4.819128)
      (xy 3.131717 4.720581)
      (xy 3.023391 4.669669)
      (xy 3.011740 4.669117)
      (xy 2.945031 4.723101)
      (xy 2.925981 4.824755)
      (xy 2.863726 4.824755)
      (xy 2.876076 4.676638)
      (xy 2.928771 4.616173)
      (xy 3.006912 4.606862)
    )

    (stroke (width 0.000000) (type solid)) (fill solid) (layer "F.SilkS") (tstamp f4f06a68-a598-4c39-9363-d8d7dd70f36e))
  (fp_poly
    (pts
      (xy 3.941329 4.646248)
      (xy 4.032139 4.756330)
      (xy 4.036452 4.862922)
      (xy 3.991650 4.973277)
      (xy 3.874605 5.023026)
      (xy 3.813113 5.031027)
      (xy 3.678517 5.034965)
      (xy 3.622559 4.988105)
      (xy 3.610850 4.856058)
      (xy 3.610785 4.828699)
      (xy 3.611100 4.824755)
      (xy 3.735295 4.824755)
      (xy 3.756806 4.945493)
      (xy 3.832965 4.970427)
      (xy 3.844241 4.968540)
      (xy 3.933886 4.898045)
      (xy 3.953187 4.824755)
      (xy 3.905963 4.714611)
      (xy 3.844241 4.680969)
      (xy 3.761667 4.697600)
      (xy 3.735483 4.807738)
      (xy 3.735295 4.824755)
      (xy 3.611100 4.824755)
      (xy 3.622744 4.678826)
      (xy 3.673478 4.617225)
      (xy 3.750858 4.607816)
    )

    (stroke (width 0.000000) (type solid)) (fill solid) (layer "F.SilkS") (tstamp 58e7a8c9-3e03-4d6c-bffe-0a9e55b43e4f))
  (fp_poly
    (pts
      (xy 4.449149 4.623828)
      (xy 4.437471 4.637154)
      (xy 4.373407 4.650798)
      (xy 4.264113 4.692019)
      (xy 4.233334 4.731372)
      (xy 4.286050 4.783344)
      (xy 4.373407 4.811947)
      (xy 4.513481 4.838926)
      (xy 4.373407 4.847404)
      (xy 4.263910 4.875936)
      (xy 4.233334 4.913807)
      (xy 4.286084 4.969175)
      (xy 4.373407 4.998711)
      (xy 4.455514 5.018431)
      (xy 4.422757 5.029116)
      (xy 4.342280 5.034169)
      (xy 4.227266 5.026852)
      (xy 4.179980 4.965275)
      (xy 4.171079 4.824755)
      (xy 4.181302 4.678880)
      (xy 4.231525 4.621185)
      (xy 4.342280 4.615340)
    )

    (stroke (width 0.000000) (type solid)) (fill solid) (layer "F.SilkS") (tstamp f9a6a4d9-0413-451f-a7e7-fc218eb81bdf))
  (fp_poly
    (pts
      (xy 5.178490 4.655548)
      (xy 5.182206 4.693500)
      (xy 5.087295 4.686939)
      (xy 4.949341 4.697674)
      (xy 4.886326 4.772166)
      (xy 4.899857 4.873547)
      (xy 4.991542 4.964950)
      (xy 5.073775 4.997096)
      (xy 5.158799 5.021629)
      (xy 5.123393 5.031879)
      (xy 5.065834 5.035425)
      (xy 4.919846 4.997796)
      (xy 4.851552 4.944046)
      (xy 4.813484 4.823771)
      (xy 4.863430 4.707840)
      (xy 4.967539 4.626124)
      (xy 5.091958 4.608494)
    )

    (stroke (width 0.000000) (type solid)) (fill solid) (layer "F.SilkS") (tstamp 36aa9ed5-fa38-4d40-a993-71db5c2c57f7))
  (fp_poly
    (pts
      (xy 5.619695 4.635031)
      (xy 5.726061 4.720724)
      (xy 5.748414 4.856188)
      (xy 5.722849 4.926737)
      (xy 5.621274 5.011473)
      (xy 5.474233 5.044431)
      (xy 5.347338 5.013082)
      (xy 5.333170 5.001143)
      (xy 5.300314 4.911978)
      (xy 5.292502 4.824878)
      (xy 5.363774 4.824878)
      (xy 5.405853 4.927038)
      (xy 5.503716 4.970986)
      (xy 5.524220 4.968714)
      (xy 5.628118 4.896924)
      (xy 5.653519 4.839415)
      (xy 5.625039 4.734614)
      (xy 5.529005 4.681090)
      (xy 5.419831 4.705090)
      (xy 5.403726 4.718921)
      (xy 5.363774 4.824878)
      (xy 5.292502 4.824878)
      (xy 5.291667 4.815565)
      (xy 5.332948 4.691355)
      (xy 5.456991 4.629996)
    )

    (stroke (width 0.000000) (type solid)) (fill solid) (layer "F.SilkS") (tstamp 1bf2f694-8618-4e4b-9d82-b0af8debc0d5))
  (fp_poly
    (pts
      (xy 6.085009 4.639140)
      (xy 6.039680 4.649600)
      (xy 5.929838 4.701393)
      (xy 5.936286 4.762473)
      (xy 6.054290 4.804861)
      (xy 6.172964 4.854320)
      (xy 6.191295 4.930449)
      (xy 6.116906 4.997901)
      (xy 6.007598 5.021395)
      (xy 5.906564 5.022588)
      (xy 5.928819 5.008856)
      (xy 5.960907 5.001501)
      (xy 6.080783 4.950923)
      (xy 6.081042 4.888481)
      (xy 5.969912 4.836129)
      (xy 5.875820 4.775377)
      (xy 5.881008 4.696335)
      (xy 5.974275 4.638133)
      (xy 6.028993 4.629707)
      (xy 6.117555 4.626572)
    )

    (stroke (width 0.000000) (type solid)) (fill solid) (layer "F.SilkS") (tstamp 916b6b16-84e1-4bdc-9c9c-160154e9afdd))
  (fp_poly
    (pts
      (xy 6.572212 4.626973)
      (xy 6.606631 4.641268)
      (xy 6.587113 4.649072)
      (xy 6.500107 4.730523)
      (xy 6.457002 4.875306)
      (xy 6.432181 5.073774)
      (xy 6.422218 4.876011)
      (xy 6.379710 4.707955)
      (xy 6.303309 4.649776)
      (xy 6.288309 4.632612)
      (xy 6.377398 4.622473)
      (xy 6.443383 4.621306)
    )

    (stroke (width 0.000000) (type solid)) (fill solid) (layer "F.SilkS") (tstamp 73a13a4d-66da-491e-ad04-82b38f046764))
  (fp_poly
    (pts
      (xy 6.897166 4.657397)
      (xy 6.970474 4.782947)
      (xy 6.991139 4.824755)
      (xy 7.042725 4.961615)
      (xy 7.044692 5.037337)
      (xy 7.033797 5.042647)
      (xy 6.974322 4.995242)
      (xy 6.972549 4.980392)
      (xy 6.920408 4.929811)
      (xy 6.848040 4.918137)
      (xy 6.746877 4.944208)
      (xy 6.723530 4.980392)
      (xy 6.676892 5.040845)
      (xy 6.662282 5.042647)
      (xy 6.647017 4.993984)
      (xy 6.683654 4.872521)
      (xy 6.704940 4.824755)
      (xy 6.723809 4.789953)
      (xy 6.785785 4.789953)
      (xy 6.830976 4.853348)
      (xy 6.848040 4.855882)
      (xy 6.908676 4.834642)
      (xy 6.910295 4.828429)
      (xy 6.866670 4.775277)
      (xy 6.848040 4.762500)
      (xy 6.790673 4.767436)
      (xy 6.785785 4.789953)
      (xy 6.723809 4.789953)
      (xy 6.780380 4.685617)
      (xy 6.838587 4.610915)
      (xy 6.848040 4.606862)
    )

    (stroke (width 0.000000) (type solid)) (fill solid) (layer "F.SilkS") (tstamp 83996a2e-4956-4dce-a37e-ff69c034bd88))
  (fp_poly
    (pts
      (xy 7.512234 4.617716)
      (xy 7.517280 4.618291)
      (xy 7.650804 4.663632)
      (xy 7.688481 4.762500)
      (xy 7.712635 4.906017)
      (xy 7.738846 4.964828)
      (xy 7.752549 5.032706)
      (xy 7.729943 5.042647)
      (xy 7.658580 4.993014)
      (xy 7.634840 4.949264)
      (xy 7.568978 4.866773)
      (xy 7.534797 4.855882)
      (xy 7.477844 4.906275)
      (xy 7.470589 4.949264)
      (xy 7.436973 5.032111)
      (xy 7.408334 5.042647)
      (xy 7.367493 4.987847)
      (xy 7.346735 4.852784)
      (xy 7.346079 4.820619)
      (xy 7.351507 4.731372)
      (xy 7.470589 4.731372)
      (xy 7.517963 4.791818)
      (xy 7.532844 4.793627)
      (xy 7.593289 4.746253)
      (xy 7.595098 4.731372)
      (xy 7.547724 4.670926)
      (xy 7.532844 4.669117)
      (xy 7.472398 4.716492)
      (xy 7.470589 4.731372)
      (xy 7.351507 4.731372)
      (xy 7.355007 4.673821)
      (xy 7.400858 4.617453)
    )

    (stroke (width 0.000000) (type solid)) (fill solid) (layer "F.SilkS") (tstamp 2e227821-e7e7-4298-b69f-236a78030949))
  (fp_poly
    (pts
      (xy 7.888148 4.716534)
      (xy 7.898172 4.878748)
      (xy 7.886892 4.965554)
      (xy 7.870064 4.980107)
      (xy 7.860622 4.890705)
      (xy 7.859818 4.824755)
      (xy 7.865947 4.704193)
      (xy 7.880008 4.685902)
    )

    (stroke (width 0.000000) (type solid)) (fill solid) (layer "F.SilkS") (tstamp d49ac448-d74d-44ee-80cd-aa3c4a6a8871))
  (fp_poly
    (pts
      (xy 8.360671 4.629957)
      (xy 8.280099 4.662511)
      (xy 8.279902 4.662566)
      (xy 8.153031 4.741105)
      (xy 8.124265 4.824755)
      (xy 8.180878 4.937423)
      (xy 8.279902 4.986943)
      (xy 8.372463 5.017987)
      (xy 8.347539 5.030392)
      (xy 8.311030 5.031526)
      (xy 8.167349 5.017536)
      (xy 8.108701 5.001416)
      (xy 8.047524 4.921549)
      (xy 8.030883 4.826227)
      (xy 8.082174 4.685087)
      (xy 8.227534 4.616935)
      (xy 8.331685 4.613068)
    )

    (stroke (width 0.000000) (type solid)) (fill solid) (layer "F.SilkS") (tstamp 7d25171a-cbe5-484c-bc05-0b9f5c9491e2))
  (fp_poly
    (pts
      (xy 8.764813 4.657397)
      (xy 8.838121 4.782947)
      (xy 8.858786 4.824755)
      (xy 8.910372 4.961615)
      (xy 8.912339 5.037337)
      (xy 8.901444 5.042647)
      (xy 8.841969 4.995242)
      (xy 8.840196 4.980392)
      (xy 8.788055 4.929811)
      (xy 8.715687 4.918137)
      (xy 8.614524 4.944208)
      (xy 8.591177 4.980392)
      (xy 8.544539 5.040845)
      (xy 8.529929 5.042647)
      (xy 8.514664 4.993984)
      (xy 8.551301 4.872521)
      (xy 8.572587 4.824755)
      (xy 8.591456 4.789953)
      (xy 8.653432 4.789953)
      (xy 8.698623 4.853348)
      (xy 8.715687 4.855882)
      (xy 8.776323 4.834642)
      (xy 8.777942 4.828429)
      (xy 8.734317 4.775277)
      (xy 8.715687 4.762500)
      (xy 8.658320 4.767436)
      (xy 8.653432 4.789953)
      (xy 8.591456 4.789953)
      (xy 8.648027 4.685617)
      (xy 8.706234 4.610915)
      (xy 8.715687 4.606862)
    )

    (stroke (width 0.000000) (type solid)) (fill solid) (layer "F.SilkS") (tstamp c16c6f59-402a-4de7-af3e-2b493875c9d4))
  (fp_poly
    (pts
      (xy -1.171429 4.780139)
      (xy -1.123864 4.859381)
      (xy -1.129926 4.885972)
      (xy -1.194970 4.884045)
      (xy -1.203594 4.876634)
      (xy -1.244640 4.780794)
      (xy -1.245098 4.770800)
      (xy -1.213512 4.747653)
    )

    (stroke (width 0.000000) (type solid)) (fill solid) (layer "F.SilkS") (tstamp 2042b2da-096d-4802-956e-112f06d6b35a))
  (fp_poly
    (pts
      (xy -8.602793 3.688675)
      (xy -8.530803 3.727124)
      (xy -8.528921 3.735294)
      (xy -8.582198 3.782092)
      (xy -8.684558 3.797549)
      (xy -8.801555 3.818859)
      (xy -8.840196 3.859804)
      (xy -8.786919 3.906602)
      (xy -8.684558 3.922058)
      (xy -8.567562 3.943369)
      (xy -8.528921 3.984313)
      (xy -8.582198 4.031112)
      (xy -8.684558 4.046568)
      (xy -8.809734 4.079039)
      (xy -8.840196 4.139951)
      (xy -8.786077 4.215056)
      (xy -8.684558 4.233333)
      (xy -8.567562 4.254644)
      (xy -8.528921 4.295588)
      (xy -8.583648 4.336737)
      (xy -8.718218 4.357305)
      (xy -8.746813 4.357843)
      (xy -8.964705 4.357843)
      (xy -8.964705 4.015441)
      (xy -8.964705 3.673039)
      (xy -8.746813 3.673039)
    )

    (stroke (width 0.000000) (type solid)) (fill solid) (layer "F.SilkS") (tstamp e0916741-b040-4c45-be44-2d624e6216d5))
  (fp_poly
    (pts
      (xy -7.977653 3.682904)
      (xy -7.908815 3.727675)
      (xy -7.906372 3.741954)
      (xy -7.951657 3.783582)
      (xy -7.999755 3.775036)
      (xy -8.124790 3.763058)
      (xy -8.237519 3.800689)
      (xy -8.279902 3.861518)
      (xy -8.226216 3.908428)
      (xy -8.096285 3.952457)
      (xy -8.088930 3.954110)
      (xy -7.923798 4.023916)
      (xy -7.856720 4.125789)
      (xy -7.898253 4.237200)
      (xy -7.939283 4.273463)
      (xy -8.132288 4.352461)
      (xy -8.322357 4.307648)
      (xy -8.342156 4.295588)
      (xy -8.372828 4.255995)
      (xy -8.297575 4.237364)
      (xy -8.196895 4.234286)
      (xy -8.041315 4.209745)
      (xy -7.979741 4.154661)
      (xy -8.020366 4.094449)
      (xy -8.140183 4.058395)
      (xy -8.297078 3.998678)
      (xy -8.374348 3.895456)
      (xy -8.351397 3.778502)
      (xy -8.342156 3.766421)
      (xy -8.242938 3.705007)
      (xy -8.105232 3.676258)
    )

    (stroke (width 0.000000) (type solid)) (fill solid) (layer "F.SilkS") (tstamp 251d7fbf-181d-4c42-b394-dee413c0bb76))
  (fp_poly
    (pts
      (xy -7.257403 3.688520)
      (xy -7.184829 3.744373)
      (xy -7.188244 3.788939)
      (xy -7.295036 3.776964)
      (xy -7.301162 3.775445)
      (xy -7.481057 3.780605)
      (xy -7.559467 3.833067)
      (xy -7.651169 3.985326)
      (xy -7.634809 4.120261)
      (xy -7.526215 4.208131)
      (xy -7.352975 4.221066)
      (xy -7.210970 4.217051)
      (xy -7.159802 4.248606)
      (xy -7.213905 4.300723)
      (xy -7.257787 4.320055)
      (xy -7.447055 4.353466)
      (xy -7.607265 4.279043)
      (xy -7.657353 4.233333)
      (xy -7.763140 4.089250)
      (xy -7.761939 3.949470)
      (xy -7.684950 3.811401)
      (xy -7.564583 3.715809)
      (xy -7.404995 3.672560)
    )

    (stroke (width 0.000000) (type solid)) (fill solid) (layer "F.SilkS") (tstamp 379b1afe-d232-4911-adb9-546731345591))
  (fp_poly
    (pts
      (xy -6.499515 3.728655)
      (xy -6.477273 3.869255)
      (xy -6.474509 3.950996)
      (xy -6.490267 4.147349)
      (xy -6.545903 4.257894)
      (xy -6.594926 4.293398)
      (xy -6.734878 4.349809)
      (xy -6.852138 4.329581)
      (xy -6.925857 4.290601)
      (xy -7.003151 4.195706)
      (xy -7.033557 4.014333)
      (xy -7.034804 3.950092)
      (xy -7.022309 3.784095)
      (xy -6.990733 3.685168)
      (xy -6.972549 3.673039)
      (xy -6.935421 3.728682)
      (xy -6.913150 3.869464)
      (xy -6.910294 3.953186)
      (xy -6.903843 4.126059)
      (xy -6.872135 4.207964)
      (xy -6.796635 4.232263)
      (xy -6.754656 4.233333)
      (xy -6.658616 4.221722)
      (xy -6.613113 4.164647)
      (xy -6.599614 4.028748)
      (xy -6.599019 3.953186)
      (xy -6.586654 3.786113)
      (xy -6.555369 3.685894)
      (xy -6.536764 3.673039)
    )

    (stroke (width 0.000000) (type solid)) (fill solid) (layer "F.SilkS") (tstamp e4f79b5f-73ed-4a28-b0c6-eebaeb5642b0))
  (fp_poly
    (pts
      (xy -5.925832 3.688675)
      (xy -5.853842 3.727124)
      (xy -5.851960 3.735294)
      (xy -5.905237 3.782092)
      (xy -6.007598 3.797549)
      (xy -6.124594 3.818859)
      (xy -6.163235 3.859804)
      (xy -6.109958 3.906602)
      (xy -6.007598 3.922058)
      (xy -5.890601 3.943369)
      (xy -5.851960 3.984313)
      (xy -5.905237 4.031112)
      (xy -6.007598 4.046568)
      (xy -6.132773 4.079039)
      (xy -6.163235 4.139951)
      (xy -6.109117 4.215056)
      (xy -6.007598 4.233333)
      (xy -5.890601 4.254644)
      (xy -5.851960 4.295588)
      (xy -5.906687 4.336737)
      (xy -6.041257 4.357305)
      (xy -6.069853 4.357843)
      (xy -6.287745 4.357843)
      (xy -6.287745 4.015441)
      (xy -6.287745 3.673039)
      (xy -6.069853 3.673039)
    )

    (stroke (width 0.000000) (type solid)) (fill solid) (layer "F.SilkS") (tstamp 25115366-efdb-460d-bc22-f223ebf6ccfa))
  (fp_poly
    (pts
      (xy -5.563148 3.785792)
      (xy -5.541823 3.940623)
      (xy -5.540686 3.987987)
      (xy -5.531890 4.146918)
      (xy -5.490615 4.216952)
      (xy -5.394533 4.233291)
      (xy -5.385049 4.233333)
      (xy -5.268052 4.254644)
      (xy -5.229411 4.295588)
      (xy -5.284138 4.336737)
      (xy -5.418708 4.357305)
      (xy -5.447304 4.357843)
      (xy -5.665196 4.357843)
      (xy -5.665196 4.011767)
      (xy -5.655279 3.810413)
      (xy -5.627454 3.709888)
      (xy -5.602941 3.704166)
    )

    (stroke (width 0.000000) (type solid)) (fill solid) (layer "F.SilkS") (tstamp 2e455997-d92e-443c-9442-d31169c92e32))
  (fp_poly
    (pts
      (xy -4.812633 3.724770)
      (xy -4.735157 3.853341)
      (xy -4.654697 4.018819)
      (xy -4.589643 4.181270)
      (xy -4.558381 4.300760)
      (xy -4.563713 4.335445)
      (xy -4.615017 4.322847)
      (xy -4.643185 4.273371)
      (xy -4.731029 4.192472)
      (xy -4.872760 4.175830)
      (xy -5.016103 4.222650)
      (xy -5.080495 4.280024)
      (xy -5.144342 4.337339)
      (xy -5.165177 4.316313)
      (xy -5.142710 4.208477)
      (xy -5.083914 4.050129)
      (xy -5.065848 4.010349)
      (xy -4.955925 4.010349)
      (xy -4.950145 4.093583)
      (xy -4.893670 4.108823)
      (xy -4.810459 4.056877)
      (xy -4.793627 3.984313)
      (xy -4.819698 3.883151)
      (xy -4.855882 3.859804)
      (xy -4.916523 3.879956)
      (xy -4.918137 3.885839)
      (xy -4.937504 3.959019)
      (xy -4.955925 4.010349)
      (xy -5.065848 4.010349)
      (xy -5.007349 3.881541)
      (xy -4.931574 3.742990)
      (xy -4.875149 3.674750)
      (xy -4.868736 3.673039)
    )

    (stroke (width 0.000000) (type solid)) (fill solid) (layer "F.SilkS") (tstamp 7c0b12a7-4ea5-4354-8324-a30391b93f9a))
  (fp_poly
    (pts
      (xy -3.703824 3.714738)
      (xy -3.556796 3.821052)
      (xy -3.497423 3.963807)
      (xy -3.528303 4.114827)
      (xy -3.652035 4.245940)
      (xy -3.871214 4.328970)
      (xy -3.875367 4.329727)
      (xy -4.108823 4.371700)
      (xy -4.108823 4.022369)
      (xy -4.108779 4.019771)
      (xy -3.984313 4.019771)
      (xy -3.973955 4.167183)
      (xy -3.928820 4.222752)
      (xy -3.850598 4.222099)
      (xy -3.712852 4.161857)
      (xy -3.653925 4.101721)
      (xy -3.617283 3.954212)
      (xy -3.684351 3.840663)
      (xy -3.826722 3.797549)
      (xy -3.932476 3.813067)
      (xy -3.976340 3.883968)
      (xy -3.984313 4.019771)
      (xy -4.108779 4.019771)
      (xy -4.105495 3.824064)
      (xy -4.085507 3.719948)
      (xy -4.033858 3.679710)
      (xy -3.935911 3.673039)
    )

    (stroke (width 0.000000) (type solid)) (fill solid) (layer "F.SilkS") (tstamp e4b85fb0-01b6-4ca4-ac15-1ef4eb4e2329))
  (fp_poly
    (pts
      (xy -2.951284 3.686165)
      (xy -2.891144 3.721644)
      (xy -2.894853 3.735294)
      (xy -2.980667 3.783484)
      (xy -3.085291 3.797549)
      (xy -3.200518 3.819328)
      (xy -3.237255 3.859804)
      (xy -3.183978 3.906602)
      (xy -3.081617 3.922058)
      (xy -2.964621 3.943369)
      (xy -2.925980 3.984313)
      (xy -2.979257 4.031112)
      (xy -3.081617 4.046568)
      (xy -3.206793 4.079039)
      (xy -3.237255 4.139951)
      (xy -3.182693 4.213441)
      (xy -3.046816 4.233333)
      (xy -2.922362 4.250193)
      (xy -2.893625 4.293452)
      (xy -2.894853 4.295588)
      (xy -2.980423 4.339898)
      (xy -3.124249 4.357037)
      (xy -3.262423 4.343888)
      (xy -3.320261 4.316340)
      (xy -3.344603 4.234421)
      (xy -3.359536 4.073225)
      (xy -3.361764 3.973938)
      (xy -3.361764 3.673039)
      (xy -3.109071 3.673039)
    )

    (stroke (width 0.000000) (type solid)) (fill solid) (layer "F.SilkS") (tstamp 8f296717-fe97-4189-a7d4-94323775962b))
  (fp_poly
    (pts
      (xy -1.580319 3.727493)
      (xy -1.561477 3.861652)
      (xy -1.558315 4.031709)
      (xy -1.570805 4.193855)
      (xy -1.598917 4.304285)
      (xy -1.615288 4.324652)
      (xy -1.681666 4.300159)
      (xy -1.782155 4.196372)
      (xy -1.833180 4.127110)
      (xy -1.992156 3.893155)
      (xy -1.992156 4.090698)
      (xy -2.009993 4.239790)
      (xy -2.053040 4.325820)
      (xy -2.054411 4.326715)
      (xy -2.091735 4.294655)
      (xy -2.112912 4.153065)
      (xy -2.116666 4.019115)
      (xy -2.106089 3.824281)
      (xy -2.078275 3.700501)
      (xy -2.052312 3.673039)
      (xy -1.983970 3.722093)
      (xy -1.888328 3.845419)
      (xy -1.849983 3.906495)
      (xy -1.712009 4.139951)
      (xy -1.692688 3.906495)
      (xy -1.666462 3.756324)
      (xy -1.625677 3.676829)
      (xy -1.614869 3.673039)
    )

    (stroke (width 0.000000) (type solid)) (fill solid) (layer "F.SilkS") (tstamp f582bba7-ed5f-42eb-97e0-61eff1790454))
  (fp_poly
    (pts
      (xy -0.875476 3.706596)
      (xy -0.834829 3.744373)
      (xy -0.838302 3.789397)
      (xy -0.945599 3.776841)
      (xy -1.127289 3.778733)
      (xy -1.255685 3.868137)
      (xy -1.300331 4.021418)
      (xy -1.297701 4.050056)
      (xy -1.253877 4.162447)
      (xy -1.139950 4.212947)
      (xy -1.073897 4.221714)
      (xy -0.922610 4.213077)
      (xy -0.874845 4.159637)
      (xy -0.939692 4.077958)
      (xy -0.980514 4.051555)
      (xy -1.048073 4.003663)
      (xy -1.003925 3.987815)
      (xy -0.949387 3.986206)
      (xy -0.840218 4.015691)
      (xy -0.809332 4.128635)
      (xy -0.809313 4.133290)
      (xy -0.856419 4.279395)
      (xy -0.978754 4.349083)
      (xy -1.147848 4.334850)
      (xy -1.293500 4.260930)
      (xy -1.408138 4.115983)
      (xy -1.418717 3.941823)
      (xy -1.323098 3.780758)
      (xy -1.318014 3.776070)
      (xy -1.176583 3.699657)
      (xy -1.011438 3.675343)
    )

    (stroke (width 0.000000) (type solid)) (fill solid) (layer "F.SilkS") (tstamp fbd3711a-6e1e-4816-84ab-ff9c5752dd7b))
  (fp_poly
    (pts
      (xy -0.260636 3.688675)
      (xy -0.188646 3.727124)
      (xy -0.186764 3.735294)
      (xy -0.240041 3.782092)
      (xy -0.342402 3.797549)
      (xy -0.459398 3.818859)
      (xy -0.498039 3.859804)
      (xy -0.444762 3.906602)
      (xy -0.342402 3.922058)
      (xy -0.225405 3.943369)
      (xy -0.186764 3.984313)
      (xy -0.240041 4.031112)
      (xy -0.342402 4.046568)
      (xy -0.467577 4.079039)
      (xy -0.498039 4.139951)
      (xy -0.443477 4.213441)
      (xy -0.307600 4.233333)
      (xy -0.183147 4.250193)
      (xy -0.154409 4.293452)
      (xy -0.155637 4.295588)
      (xy -0.238420 4.337689)
      (xy -0.389282 4.357601)
      (xy -0.408331 4.357843)
      (xy -0.622549 4.357843)
      (xy -0.622549 4.015441)
      (xy -0.622549 3.673039)
      (xy -0.404656 3.673039)
    )

    (stroke (width 0.000000) (type solid)) (fill solid) (layer "F.SilkS") (tstamp 0d91337e-5007-4b7e-b942-668019310bb7))
  (fp_poly
    (pts
      (xy 0.532133 3.729327)
      (xy 0.554745 3.874527)
      (xy 0.560295 4.015441)
      (xy 0.549617 4.208643)
      (xy 0.521600 4.331202)
      (xy 0.495940 4.357843)
      (xy 0.427598 4.308789)
      (xy 0.331956 4.185463)
      (xy 0.293612 4.124387)
      (xy 0.155638 3.890931)
      (xy 0.136130 4.093259)
      (xy 0.106099 4.249235)
      (xy 0.065741 4.292566)
      (xy 0.027303 4.233057)
      (xy 0.003035 4.080508)
      (xy 0.000000 3.984313)
      (xy 0.010795 3.806744)
      (xy 0.038397 3.694040)
      (xy 0.060011 3.673039)
      (xy 0.128269 3.720273)
      (xy 0.230642 3.839472)
      (xy 0.277903 3.905383)
      (xy 0.435785 4.137726)
      (xy 0.435785 3.905383)
      (xy 0.450514 3.755722)
      (xy 0.487017 3.676711)
      (xy 0.498040 3.673039)
    )

    (stroke (width 0.000000) (type solid)) (fill solid) (layer "F.SilkS") (tstamp ad82c5c2-6413-4ccd-bbb4-b806f7192875))
  (fp_poly
    (pts
      (xy 0.845007 3.728991)
      (xy 0.867528 3.871888)
      (xy 0.871569 3.980639)
      (xy 0.859940 4.166301)
      (xy 0.830323 4.295599)
      (xy 0.809314 4.326715)
      (xy 0.771990 4.294655)
      (xy 0.750814 4.153065)
      (xy 0.747059 4.019115)
      (xy 0.757191 3.830462)
      (xy 0.783350 3.704764)
      (xy 0.809314 3.673039)
    )

    (stroke (width 0.000000) (type solid)) (fill solid) (layer "F.SilkS") (tstamp b7bef402-550e-4bb8-b677-d8b91b9f7ad5))
  (fp_poly
    (pts
      (xy 1.420246 3.688675)
      (xy 1.492236 3.727124)
      (xy 1.494118 3.735294)
      (xy 1.440020 3.779005)
      (xy 1.309677 3.797544)
      (xy 1.307353 3.797549)
      (xy 1.176220 3.815581)
      (xy 1.120603 3.859029)
      (xy 1.120589 3.859804)
      (xy 1.174686 3.903515)
      (xy 1.305030 3.922054)
      (xy 1.307353 3.922058)
      (xy 1.438487 3.940091)
      (xy 1.494104 3.983539)
      (xy 1.494118 3.984313)
      (xy 1.440020 4.028025)
      (xy 1.309677 4.046564)
      (xy 1.307353 4.046568)
      (xy 1.159080 4.074410)
      (xy 1.120589 4.139951)
      (xy 1.176271 4.214087)
      (xy 1.307353 4.233333)
      (xy 1.438487 4.251366)
      (xy 1.494104 4.294813)
      (xy 1.494118 4.295588)
      (xy 1.439391 4.336737)
      (xy 1.304821 4.357305)
      (xy 1.276226 4.357843)
      (xy 1.058334 4.357843)
      (xy 1.058334 4.015441)
      (xy 1.058334 3.673039)
      (xy 1.276226 3.673039)
    )

    (stroke (width 0.000000) (type solid)) (fill solid) (layer "F.SilkS") (tstamp 0303c880-352d-4e7e-9a9b-7ea56874efb0))
  (fp_poly
    (pts
      (xy 2.012075 3.709648)
      (xy 2.098940 3.813166)
      (xy 2.093737 3.942689)
      (xy 2.085060 4.074004)
      (xy 2.116439 4.139809)
      (xy 2.171164 4.228850)
      (xy 2.178613 4.283698)
      (xy 2.157419 4.327263)
      (xy 2.087574 4.272570)
      (xy 2.027622 4.202206)
      (xy 1.902292 4.083677)
      (xy 1.808964 4.084873)
      (xy 1.740965 4.207167)
      (xy 1.725275 4.264460)
      (xy 1.708633 4.276627)
      (xy 1.695037 4.184557)
      (xy 1.688104 4.031005)
      (xy 1.688042 3.890931)
      (xy 1.743138 3.890931)
      (xy 1.795039 3.966981)
      (xy 1.867647 3.984313)
      (xy 1.969048 3.945387)
      (xy 1.992157 3.890931)
      (xy 1.940256 3.814881)
      (xy 1.867647 3.797549)
      (xy 1.766247 3.836475)
      (xy 1.743138 3.890931)
      (xy 1.688042 3.890931)
      (xy 1.688014 3.829113)
      (xy 1.705521 3.722032)
      (xy 1.751613 3.680239)
      (xy 1.820956 3.673992)
    )

    (stroke (width 0.000000) (type solid)) (fill solid) (layer "F.SilkS") (tstamp fb3f0316-1dec-4e28-bf4a-511a3c316d76))
  (fp_poly
    (pts
      (xy 2.410619 3.843865)
      (xy 2.410805 3.845355)
      (xy 2.420971 4.048378)
      (xy 2.410169 4.218884)
      (xy 2.397197 4.253271)
      (xy 2.388140 4.179199)
      (xy 2.384978 4.015441)
      (xy 2.388719 3.855678)
      (xy 2.397927 3.794135)
    )

    (stroke (width 0.000000) (type solid)) (fill solid) (layer "F.SilkS") (tstamp 91d2c874-1a6f-4dc1-a743-a114debc2dab))
  (fp_poly
    (pts
      (xy 2.931026 3.725031)
      (xy 3.012876 3.853626)
      (xy 3.094129 4.017751)
      (xy 3.154142 4.176334)
      (xy 3.173020 4.277544)
      (xy 3.164862 4.354155)
      (xy 3.126044 4.328357)
      (xy 3.088339 4.280024)
      (xy 2.972864 4.191025)
      (xy 2.892892 4.171078)
      (xy 2.761425 4.210409)
      (xy 2.655743 4.280024)
      (xy 2.571139 4.344570)
      (xy 2.557835 4.320979)
      (xy 2.566192 4.295588)
      (xy 2.670565 4.031005)
      (xy 2.802424 4.031005)
      (xy 2.852130 4.098558)
      (xy 2.901514 4.108823)
      (xy 2.971826 4.071695)
      (xy 2.963769 4.010349)
      (xy 2.929312 3.881173)
      (xy 2.925027 3.839148)
      (xy 2.904220 3.814667)
      (xy 2.860343 3.866215)
      (xy 2.818249 3.954904)
      (xy 2.802424 4.031005)
      (xy 2.670565 4.031005)
      (xy 2.690982 3.979247)
      (xy 2.788195 3.771839)
      (xy 2.855470 3.678215)
      (xy 2.869220 3.673039)
    )

    (stroke (width 0.000000) (type solid)) (fill solid) (layer "F.SilkS") (tstamp c3ceb15b-f2a0-4c02-b77c-9115518d1495))
  (fp_poly
    (pts
      (xy 4.021265 3.686165)
      (xy 4.081405 3.721644)
      (xy 4.077696 3.735294)
      (xy 3.991882 3.783484)
      (xy 3.887258 3.797549)
      (xy 3.772031 3.819328)
      (xy 3.735295 3.859804)
      (xy 3.788571 3.906602)
      (xy 3.890932 3.922058)
      (xy 4.007928 3.943369)
      (xy 4.046569 3.984313)
      (xy 3.993292 4.031112)
      (xy 3.890932 4.046568)
      (xy 3.765756 4.079039)
      (xy 3.735295 4.139951)
      (xy 3.789856 4.213441)
      (xy 3.925733 4.233333)
      (xy 4.050187 4.250193)
      (xy 4.078924 4.293452)
      (xy 4.077696 4.295588)
      (xy 3.992127 4.339898)
      (xy 3.848300 4.357037)
      (xy 3.710126 4.343888)
      (xy 3.652288 4.316340)
      (xy 3.627946 4.234421)
      (xy 3.613013 4.073225)
      (xy 3.610785 3.973938)
      (xy 3.610785 3.673039)
      (xy 3.863478 3.673039)
    )

    (stroke (width 0.000000) (type solid)) (fill solid) (layer "F.SilkS") (tstamp a4b08657-38d3-42db-ace3-26f6ac245e32))
  (fp_poly
    (pts
      (xy 4.332716 3.728682)
      (xy 4.354987 3.869464)
      (xy 4.357844 3.953186)
      (xy 4.363157 4.125422)
      (xy 4.394420 4.206995)
      (xy 4.474619 4.231718)
      (xy 4.548282 4.233333)
      (xy 4.672736 4.250193)
      (xy 4.701473 4.293452)
      (xy 4.700245 4.295588)
      (xy 4.614676 4.339898)
      (xy 4.470849 4.357037)
      (xy 4.332675 4.343888)
      (xy 4.274837 4.316340)
      (xy 4.246009 4.231103)
      (xy 4.234042 4.080371)
      (xy 4.237508 3.908404)
      (xy 4.254979 3.759465)
      (xy 4.285027 3.677815)
      (xy 4.295589 3.673039)
    )

    (stroke (width 0.000000) (type solid)) (fill solid) (layer "F.SilkS") (tstamp 4ea8f23e-79d4-46ca-b54f-72fec402fe84))
  (fp_poly
    (pts
      (xy 5.204108 3.686165)
      (xy 5.264248 3.721644)
      (xy 5.260540 3.735294)
      (xy 5.174726 3.783484)
      (xy 5.070101 3.797549)
      (xy 4.954874 3.819328)
      (xy 4.918138 3.859804)
      (xy 4.971414 3.906602)
      (xy 5.073775 3.922058)
      (xy 5.190771 3.943369)
      (xy 5.229412 3.984313)
      (xy 5.176136 4.031112)
      (xy 5.073775 4.046568)
      (xy 4.948600 4.079039)
      (xy 4.918138 4.139951)
      (xy 4.972699 4.213441)
      (xy 5.108576 4.233333)
      (xy 5.233030 4.250193)
      (xy 5.261768 4.293452)
      (xy 5.260540 4.295588)
      (xy 5.174970 4.339898)
      (xy 5.031143 4.357037)
      (xy 4.892969 4.343888)
      (xy 4.835131 4.316340)
      (xy 4.810789 4.234421)
      (xy 4.795856 4.073225)
      (xy 4.793628 3.973938)
      (xy 4.793628 3.673039)
      (xy 5.046322 3.673039)
    )

    (stroke (width 0.000000) (type solid)) (fill solid) (layer "F.SilkS") (tstamp 05810745-9820-4396-bed2-1b17b938a621))
  (fp_poly
    (pts
      (xy 5.894470 3.700662)
      (xy 5.951882 3.745873)
      (xy 5.955045 3.791822)
      (xy 5.884531 3.775589)
      (xy 5.712110 3.758059)
      (xy 5.580838 3.827176)
      (xy 5.516159 3.953088)
      (xy 5.543516 4.105945)
      (xy 5.568667 4.146175)
      (xy 5.695641 4.224100)
      (xy 5.811102 4.219956)
      (xy 5.938862 4.215744)
      (xy 5.974384 4.253001)
      (xy 5.902923 4.309664)
      (xy 5.877997 4.320055)
      (xy 5.693274 4.353923)
      (xy 5.528221 4.285545)
      (xy 5.513676 4.275169)
      (xy 5.424873 4.142655)
      (xy 5.405144 3.962617)
      (xy 5.458574 3.793736)
      (xy 5.478273 3.766613)
      (xy 5.594056 3.698010)
      (xy 5.752180 3.675178)
    )

    (stroke (width 0.000000) (type solid)) (fill solid) (layer "F.SilkS") (tstamp deaf27fd-890a-4b2a-bb12-4d3d9f943216))
  (fp_poly
    (pts
      (xy 6.541196 3.683830)
      (xy 6.628914 3.713820)
      (xy 6.630147 3.735294)
      (xy 6.540072 3.792576)
      (xy 6.501964 3.797549)
      (xy 6.438109 3.844388)
      (xy 6.413066 3.994261)
      (xy 6.412255 4.042894)
      (xy 6.397784 4.208662)
      (xy 6.361840 4.314916)
      (xy 6.350000 4.326715)
      (xy 6.310441 4.297185)
      (xy 6.289737 4.161759)
      (xy 6.287745 4.081370)
      (xy 6.279817 3.904901)
      (xy 6.246801 3.820875)
      (xy 6.174853 3.797733)
      (xy 6.163236 3.797549)
      (xy 6.062074 3.771478)
      (xy 6.038726 3.735294)
      (xy 6.094754 3.699958)
      (xy 6.238169 3.677400)
      (xy 6.353674 3.673039)
    )

    (stroke (width 0.000000) (type solid)) (fill solid) (layer "F.SilkS") (tstamp 37f2052e-fa51-4fe0-b3ed-8f6bb7d59f46))
  (fp_poly
    (pts
      (xy 7.068039 3.705747)
      (xy 7.175328 3.786524)
      (xy 7.198062 3.889349)
      (xy 7.172084 3.937799)
      (xy 7.146267 4.041775)
      (xy 7.195589 4.136462)
      (xy 7.275223 4.270704)
      (xy 7.272490 4.324997)
      (xy 7.198085 4.287004)
      (xy 7.125667 4.217133)
      (xy 6.977297 4.081920)
      (xy 6.885195 4.057353)
      (xy 6.848747 4.143323)
      (xy 6.848040 4.167404)
      (xy 6.819453 4.286582)
      (xy 6.785785 4.326715)
      (xy 6.748461 4.294655)
      (xy 6.727284 4.153065)
      (xy 6.723530 4.019115)
      (xy 6.725562 3.895496)
      (xy 6.848040 3.895496)
      (xy 6.890434 3.963584)
      (xy 6.980810 3.966759)
      (xy 7.063961 3.909779)
      (xy 7.081525 3.875367)
      (xy 7.052888 3.812497)
      (xy 6.977737 3.797549)
      (xy 6.870717 3.837097)
      (xy 6.848040 3.895496)
      (xy 6.725562 3.895496)
      (xy 6.726770 3.822017)
      (xy 6.747004 3.718952)
      (xy 6.800007 3.679449)
      (xy 6.901549 3.673039)
      (xy 6.902672 3.673039)
    )

    (stroke (width 0.000000) (type solid)) (fill solid) (layer "F.SilkS") (tstamp bc9d1315-8283-44ed-9c92-d5fe1d982aa2))
  (fp_poly
    (pts
      (xy 7.506281 3.728991)
      (xy 7.528802 3.871888)
      (xy 7.532844 3.980639)
      (xy 7.521215 4.166301)
      (xy 7.491598 4.295599)
      (xy 7.470589 4.326715)
      (xy 7.433265 4.294655)
      (xy 7.412088 4.153065)
      (xy 7.408334 4.019115)
      (xy 7.418465 3.830462)
      (xy 7.444625 3.704764)
      (xy 7.470589 3.673039)
    )

    (stroke (width 0.000000) (type solid)) (fill solid) (layer "F.SilkS") (tstamp ac60cc8e-ddf3-48d4-960e-19acdff41bfd))
  (fp_poly
    (pts
      (xy 8.111375 3.691371)
      (xy 8.217647 3.741282)
      (xy 8.261175 3.783696)
      (xy 8.199922 3.782835)
      (xy 8.149895 3.772797)
      (xy 7.963362 3.778462)
      (xy 7.833381 3.869175)
      (xy 7.788937 4.022510)
      (xy 7.791515 4.050056)
      (xy 7.835178 4.161593)
      (xy 7.949131 4.218855)
      (xy 8.030883 4.234195)
      (xy 8.161959 4.260371)
      (xy 8.179922 4.288311)
      (xy 8.134737 4.312013)
      (xy 8.007731 4.351943)
      (xy 7.909810 4.333085)
      (xy 7.795715 4.260930)
      (xy 7.682516 4.115454)
      (xy 7.667174 3.936493)
      (xy 7.753687 3.772374)
      (xy 7.755182 3.770868)
      (xy 7.918856 3.685798)
    )

    (stroke (width 0.000000) (type solid)) (fill solid) (layer "F.SilkS") (tstamp 4653912d-28ad-4ef1-b3f6-50ffa74a2cfa))
  (fp_poly
    (pts
      (xy 8.699751 3.725540)
      (xy 8.774408 3.858388)
      (xy 8.809140 3.937622)
      (xy 8.900905 4.165840)
      (xy 8.949130 4.296250)
      (xy 8.956532 4.346645)
      (xy 8.925828 4.334814)
      (xy 8.861414 4.280024)
      (xy 8.725205 4.196384)
      (xy 8.624265 4.171078)
      (xy 8.497016 4.217378)
      (xy 8.428819 4.280024)
      (xy 8.365617 4.347992)
      (xy 8.345974 4.312781)
      (xy 8.345504 4.295588)
      (xy 8.370047 4.176247)
      (xy 8.431784 4.013626)
      (xy 8.433360 4.010349)
      (xy 8.553389 4.010349)
      (xy 8.559168 4.093583)
      (xy 8.615644 4.108823)
      (xy 8.702420 4.063619)
      (xy 8.715687 4.019115)
      (xy 8.677745 3.913123)
      (xy 8.653432 3.890931)
      (xy 8.595198 3.874172)
      (xy 8.591177 3.882165)
      (xy 8.571679 3.958950)
      (xy 8.553389 4.010349)
      (xy 8.433360 4.010349)
      (xy 8.511223 3.848430)
      (xy 8.588870 3.721364)
      (xy 8.643628 3.673039)
    )

    (stroke (width 0.000000) (type solid)) (fill solid) (layer "F.SilkS") (tstamp cb2f14c7-3155-4fcf-837c-e92ee49d85cf))
  (fp_poly
    (pts
      (xy -2.330173 3.729029)
      (xy -2.307632 3.872188)
      (xy -2.303431 3.984313)
      (xy -2.314629 4.161878)
      (xy -2.343261 4.274582)
      (xy -2.365686 4.295588)
      (xy -2.401199 4.239598)
      (xy -2.423740 4.096439)
      (xy -2.427941 3.984313)
      (xy -2.416743 3.806749)
      (xy -2.388111 3.694045)
      (xy -2.365686 3.673039)
    )

    (stroke (width 0.000000) (type solid)) (fill solid) (layer "F.SilkS") (tstamp d6e5b6c2-2cd4-4d16-b3d4-10af0021caa9))
  (fp_poly
    (pts
      (xy 4.621036 -4.963180)
      (xy 4.899873 -4.895218)
      (xy 5.099158 -4.765147)
      (xy 5.162146 -4.678481)
      (xy 5.210887 -4.504890)
      (xy 5.227015 -4.262222)
      (xy 5.211439 -4.001313)
      (xy 5.165067 -3.773000)
      (xy 5.144978 -3.717731)
      (xy 5.023975 -3.524167)
      (xy 4.809555 -3.280925)
      (xy 4.516382 -3.000145)
      (xy 4.159120 -2.693965)
      (xy 3.752432 -2.374525)
      (xy 3.310983 -2.053966)
      (xy 2.849435 -1.744426)
      (xy 2.497528 -1.525981)
      (xy 2.100203 -1.288337)
      (xy 2.134823 -0.875393)
      (xy 2.180556 -0.524515)
      (xy 2.257539 -0.282760)
      (xy 2.378594 -0.136112)
      (xy 2.556544 -0.070556)
      (xy 2.804210 -0.072076)
      (xy 2.863225 -0.079195)
      (xy 3.065452 -0.127255)
      (xy 3.301370 -0.211920)
      (xy 3.404195 -0.258088)
      (xy 3.625987 -0.398556)
      (xy 3.896657 -0.619535)
      (xy 4.194410 -0.899026)
      (xy 4.497454 -1.215031)
      (xy 4.783995 -1.545549)
      (xy 5.032239 -1.868582)
      (xy 5.106429 -1.976384)
      (xy 5.447304 -2.489777)
      (xy 5.945344 -2.642991)
      (xy 6.179969 -2.712681)
      (xy 6.481979 -2.798691)
      (xy 6.830972 -2.895597)
      (xy 7.206549 -2.997977)
      (xy 7.588308 -3.100406)
      (xy 7.955847 -3.197461)
      (xy 8.288766 -3.283719)
      (xy 8.566664 -3.353756)
      (xy 8.769140 -3.402149)
      (xy 8.875792 -3.423474)
      (xy 8.883282 -3.424020)
      (xy 8.951834 -3.378880)
      (xy 8.956998 -3.272606)
      (xy 8.902530 -3.148920)
      (xy 8.855023 -3.095036)
      (xy 8.766012 -3.050930)
      (xy 8.574810 -2.980255)
      (xy 8.299445 -2.888851)
      (xy 7.957944 -2.782559)
      (xy 7.568335 -2.667219)
      (xy 7.288462 -2.587535)
      (xy 6.883998 -2.473696)
      (xy 6.521808 -2.370792)
      (xy 6.218344 -2.283576)
      (xy 5.990054 -2.216802)
      (xy 5.853392 -2.175223)
      (xy 5.820959 -2.163546)
      (xy 5.530221 -1.736555)
      (xy 5.290868 -1.395581)
      (xy 5.088008 -1.121232)
      (xy 4.906750 -0.894120)
      (xy 4.732203 -0.694855)
      (xy 4.549476 -0.504047)
      (xy 4.536273 -0.490785)
      (xy 4.007182 -0.009434)
      (xy 3.476141 0.379254)
      (xy 2.954345 0.668968)
      (xy 2.452988 0.853396)
      (xy 2.026863 0.924239)
      (xy 1.666148 0.916619)
      (xy 1.390932 0.839365)
      (xy 1.177291 0.682252)
      (xy 1.041299 0.503007)
      (xy 0.986801 0.405698)
      (xy 0.948738 0.302661)
      (xy 0.924202 0.170040)
      (xy 0.910288 -0.016027)
      (xy 0.904089 -0.279397)
      (xy 0.902696 -0.634607)
      (xy 0.902696 -1.549362)
      (xy 0.688156 -1.770759)
      (xy 0.552831 -1.899204)
      (xy 0.447763 -1.979094)
      (xy 0.415476 -1.992157)
      (xy 0.385010 -1.953466)
      (xy 0.383386 -1.832164)
      (xy 0.411863 -1.620411)
      (xy 0.471700 -1.310365)
      (xy 0.564158 -0.894184)
      (xy 0.650488 -0.529167)
      (xy 0.786884 0.084349)
      (xy 0.877277 0.599240)
      (xy 0.921322 1.011726)
      (xy 0.918677 1.318022)
      (xy 0.868996 1.514348)
      (xy 0.840069 1.556784)
      (xy 0.688752 1.658593)
      (xy 0.501828 1.662092)
      (xy 0.272354 1.564651)
      (xy -0.006612 1.363641)
      (xy -0.253030 1.142822)
      (xy -0.603060 0.808950)
      (xy -1.406554 1.603671)
      (xy -1.832501 2.009063)
      (xy -2.201417 2.322607)
      (xy -2.528491 2.553878)
      (xy -2.828913 2.712451)
      (xy -3.117872 2.807902)
      (xy -3.379984 2.847699)
      (xy -3.588095 2.853798)
      (xy -3.732196 2.820804)
      (xy -3.870826 2.731617)
      (xy -3.922713 2.689156)
      (xy -4.147150 2.437643)
      (xy -4.330730 2.113251)
      (xy -4.447026 1.766772)
      (xy -4.467925 1.641273)
      (xy -4.499465 1.477202)
      (xy -4.543266 1.380539)
      (xy -4.562398 1.369608)
      (xy -4.638881 1.396553)
      (xy -4.803251 1.470321)
      (xy -5.032917 1.580308)
      (xy -5.305288 1.715912)
      (xy -5.366523 1.747022)
      (xy -5.722751 1.923124)
      (xy -6.072709 2.086235)
      (xy -6.395005 2.227291)
      (xy -6.668243 2.337229)
      (xy -6.871029 2.406987)
      (xy -6.973970 2.427941)
      (xy -6.999816 2.368598)
      (xy -7.019475 2.202033)
      (xy -7.031547 1.945443)
      (xy -7.034804 1.680882)
      (xy -7.037342 1.392479)
      (xy -7.044259 1.155802)
      (xy -7.054506 0.994911)
      (xy -7.067033 0.933862)
      (xy -7.067367 0.933823)
      (xy -7.136080 0.948174)
      (xy -7.303612 0.987697)
      (xy -7.548059 1.047100)
      (xy -7.847515 1.121089)
      (xy -8.003312 1.159969)
      (xy -8.321710 1.236455)
      (xy -8.596471 1.296370)
      (xy -8.805518 1.335375)
      (xy -8.926778 1.349131)
      (xy -8.947291 1.345519)
      (xy -8.958199 1.263820)
      (xy -8.928406 1.134937)
      (xy -8.898545 1.069830)
      (xy -8.847879 1.015280)
      (xy -8.758270 0.963781)
      (xy -8.611579 0.907829)
      (xy -8.389670 0.839919)
      (xy -8.074403 0.752544)
      (xy -7.874046 0.698665)
      (xy -7.518808 0.605515)
      (xy -7.186088 0.521791)
      (xy -6.903034 0.454068)
      (xy -6.696794 0.408918)
      (xy -6.621910 0.395497)
      (xy -6.364654 0.358614)
      (xy -6.319320 1.113130)
      (xy -6.299933 1.402899)
      (xy -6.280230 1.641146)
      (xy -6.262457 1.803979)
      (xy -6.248862 1.867505)
      (xy -6.248356 1.867647)
      (xy -6.172334 1.839540)
      (xy -6.014006 1.764438)
      (xy -5.799705 1.656172)
      (xy -5.555768 1.528570)
      (xy -5.308530 1.395463)
      (xy -5.084326 1.270680)
      (xy -4.909490 1.168051)
      (xy -4.874816 1.146349)
      (xy -4.685531 1.014088)
      (xy -4.578885 0.900586)
      (xy -4.525596 0.770047)
      (xy -4.512372 0.703297)
      (xy -4.354646 -0.122358)
      (xy -4.237524 -0.575858)
      (xy -3.298428 -0.575858)
      (xy -3.287785 -0.402427)
      (xy -3.246766 -0.324219)
      (xy -3.195328 -0.311275)
      (xy -3.115287 -0.353657)
      (xy -2.968587 -0.469820)
      (xy -2.774337 -0.643292)
      (xy -2.551651 -0.857597)
      (xy -2.491167 -0.918260)
      (xy -2.134762 -1.298955)
      (xy -1.877202 -1.620913)
      (xy -1.712755 -1.890813)
      (xy -1.617883 -2.093731)
      (xy -1.573867 -2.230324)
      (xy -1.574320 -2.344835)
      (xy -1.612854 -2.481510)
      (xy -1.623166 -2.511376)
      (xy -1.755890 -2.753060)
      (xy -1.937625 -2.886157)
      (xy -2.152212 -2.908170)
      (xy -2.383494 -2.816605)
      (xy -2.571632 -2.657832)
      (xy -2.774022 -2.381739)
      (xy -2.959533 -2.016458)
      (xy -3.115865 -1.597225)
      (xy -3.230714 -1.159278)
      (xy -3.291783 -0.737853)
      (xy -3.298428 -0.575858)
      (xy -4.237524 -0.575858)
      (xy -4.169804 -0.838072)
      (xy -3.952667 -1.456471)
      (xy -3.698054 -1.990176)
      (xy -3.400787 -2.451811)
      (xy -3.055685 -2.853998)
      (xy -3.050490 -2.859266)
      (xy -2.677448 -3.189665)
      (xy -2.293423 -3.444447)
      (xy -1.912427 -3.620898)
      (xy -1.548470 -3.716304)
      (xy -1.215564 -3.727952)
      (xy -0.927719 -3.653127)
      (xy -0.698947 -3.489117)
      (xy -0.589873 -3.335846)
      (xy -0.516804 -3.089429)
      (xy -0.513700 -2.781927)
      (xy -0.577268 -2.452931)
      (xy -0.686324 -2.175941)
      (xy -0.808706 -1.988800)
      (xy -1.010047 -1.741185)
      (xy -1.272619 -1.451070)
      (xy -1.578689 -1.136424)
      (xy -1.910526 -0.815220)
      (xy -2.250400 -0.505429)
      (xy -2.580581 -0.225023)
      (xy -2.721987 -0.112663)
      (xy -3.358435 0.380442)
      (xy -3.322666 0.672696)
      (xy -3.257756 1.078809)
      (xy -3.173491 1.371798)
      (xy -3.064389 1.562276)
      (xy -2.924966 1.660853)
      (xy -2.801765 1.680882)
      (xy -2.565154 1.633812)
      (xy -2.270872 1.500387)
      (xy -1.938011 1.292283)
      (xy -1.585661 1.021177)
      (xy -1.294502 0.759005)
      (xy -0.751259 0.235318)
      (xy -0.329802 0.615698)
      (xy -0.134485 0.784082)
      (xy 0.033196 0.914284)
      (xy 0.147741 0.987119)
      (xy 0.175809 0.996078)
      (xy 0.210279 0.984445)
      (xy 0.228908 0.940358)
      (xy 0.229734 0.850037)
      (xy 0.210795 0.699700)
      (xy 0.170128 0.475569)
      (xy 0.105771 0.163861)
      (xy 0.015761 -0.249204)
      (xy -0.032543 -0.466912)
      (xy -0.155401 -1.023029)
      (xy -0.251667 -1.470429)
      (xy -0.323356 -1.821579)
      (xy -0.372479 -2.088941)
      (xy -0.401051 -2.284980)
      (xy -0.411083 -2.422160)
      (xy -0.404589 -2.512945)
      (xy -0.383582 -2.569799)
      (xy -0.374253 -2.582707)
      (xy -0.220643 -2.675903)
      (xy -0.003786 -2.666045)
      (xy 0.271910 -2.554605)
      (xy 0.602036 -2.343051)
      (xy 0.795163 -2.192807)
      (xy 0.943722 -2.077564)
      (xy 1.048354 -2.008575)
      (xy 1.080202 -1.998926)
      (xy 1.095705 -2.028749)
      (xy 2.157215 -2.028749)
      (xy 2.168131 -1.951192)
      (xy 2.225185 -1.930144)
      (xy 2.238031 -1.929902)
      (xy 2.336612 -1.964196)
      (xy 2.503962 -2.055433)
      (xy 2.709019 -2.186148)
      (xy 2.776144 -2.232487)
      (xy 3.244121 -2.581776)
      (xy 3.602980 -2.896795)
      (xy 3.860277 -3.186737)
      (xy 4.023571 -3.460799)
      (xy 4.100418 -3.728174)
      (xy 4.108824 -3.853794)
      (xy 4.062018 -4.084640)
      (xy 3.923220 -4.232047)
      (xy 3.694865 -4.293736)
      (xy 3.637266 -4.295589)
      (xy 3.390448 -4.236182)
      (xy 3.139138 -4.067653)
      (xy 2.893375 -3.804538)
      (xy 2.663197 -3.461375)
      (xy 2.458644 -3.052699)
      (xy 2.289756 -2.593048)
      (xy 2.186236 -2.194486)
      (xy 2.157215 -2.028749)
      (xy 1.095705 -2.028749)
      (xy 1.113361 -2.062715)
      (xy 1.185564 -2.211686)
      (xy 1.283432 -2.418087)
      (xy 1.322831 -2.502093)
      (xy 1.604697 -3.034494)
      (xy 1.929203 -3.527471)
      (xy 2.280259 -3.961653)
      (xy 2.641779 -4.317670)
      (xy 2.997675 -4.576151)
      (xy 3.084959 -4.623805)
      (xy 3.494607 -4.799346)
      (xy 3.899663 -4.914751)
      (xy 4.281386 -4.969527)
    )

    (stroke (width 0.000000) (type solid)) (fill solid) (layer "F.SilkS") (tstamp bfb3b2ff-7c36-402f-a68c-f874d7d403c6))
  (fp_poly
    (pts
      (xy -0.392454 -4.653912)
      (xy -0.352050 -4.617525)
      (xy -0.267593 -4.451041)
      (xy -0.245642 -4.242562)
      (xy -0.283743 -4.042262)
      (xy -0.379446 -3.900318)
      (xy -0.387381 -3.894462)
      (xy -0.517255 -3.815161)
      (xy -0.610847 -3.814772)
      (xy -0.729640 -3.895480)
      (xy -0.744083 -3.907132)
      (xy -0.845206 -4.047341)
      (xy -0.909057 -4.245130)
      (xy -0.926786 -4.450002)
      (xy -0.889543 -4.611459)
      (xy -0.872063 -4.637395)
      (xy -0.735447 -4.716264)
      (xy -0.556781 -4.721052)
    )

    (stroke (width 0.000000) (type solid)) (fill solid) (layer "F.SilkS") (tstamp 44408b73-37b2-4683-bd4b-45f8e4155da2))
)
