(footprint "LOGO" (version 20221018) (generator bitmap2component)
  (layer "F.Cu")
  (attr board_only exclude_from_pos_files exclude_from_bom)
  (fp_text reference "G***" (at 0 0) (layer "F.SilkS")
      (effects (font (size 1.5 1.5) (thickness 0.3)))
    (tstamp dcd33d87-4dd8-4bdc-a7cd-da3f2b2ee0a4)
  )
  (fp_text value "LOGO" (at 0.75 0) (layer "F.SilkS") hide
      (effects (font (size 1.5 1.5) (thickness 0.3)))
    (tstamp 488b464e-e50c-44d7-9f45-902e7acb0e21)
  )
  (fp_poly
    (pts
      (xy 0.727502 -4.946872)
      (xy 1.609326 -4.724584)
      (xy 2.452042 -4.332522)
      (xy 3.234037 -3.770689)
      (xy 3.511727 -3.511728)
      (xy 4.141289 -2.752641)
      (xy 4.603910 -1.910859)
      (xy 4.893486 -1.006606)
      (xy 5.003915 -0.060107)
      (xy 4.929092 0.908412)
      (xy 4.896708 1.077650)
      (xy 4.637137 1.895368)
      (xy 4.222564 2.669230)
      (xy 3.679491 3.372479)
      (xy 3.034416 3.978356)
      (xy 2.313840 4.460104)
      (xy 1.544262 4.790965)
      (xy 1.112822 4.898359)
      (xy 0.481669 4.976001)
      (xy -0.191931 4.994936)
      (xy -0.839524 4.957113)
      (xy -1.392653 4.864479)
      (xy -1.540875 4.822827)
      (xy -2.308271 4.483833)
      (xy -3.046944 3.975353)
      (xy -3.665905 3.384389)
      (xy -4.259141 2.595890)
      (xy -4.679530 1.747023)
      (xy -4.927547 0.859057)
      (xy -4.991205 0.101560)
      (xy -3.703990 0.101560)
      (xy -3.696407 0.529850)
      (xy -3.661320 0.846718)
      (xy -3.579894 1.132970)
      (xy -3.433296 1.469414)
      (xy -3.341045 1.658722)
      (xy -2.903010 2.370363)
      (xy -2.357054 2.933773)
      (xy -1.677708 3.374585)
      (xy -1.594797 3.416174)
      (xy -1.181908 3.589523)
      (xy -0.753886 3.721742)
      (xy -0.353676 3.804999)
      (xy -0.024224 3.831460)
      (xy 0.191528 3.793294)
      (xy 0.241279 3.751060)
      (xy 0.204542 3.644393)
      (xy 0.052402 3.451380)
      (xy -0.184065 3.210460)
      (xy -0.230881 3.167079)
      (xy -0.830374 2.499138)
      (xy -1.262424 1.758784)
      (xy -1.527563 0.967467)
      (xy -1.626326 0.146638)
      (xy -1.608913 -0.068532)
      (xy -0.529167 -0.068532)
      (xy -0.204240 0.004191)
      (xy 0.248434 0.184688)
      (xy 0.567814 0.484304)
      (xy 0.716577 0.811445)
      (xy 0.807775 1.171496)
      (xy 1.016299 0.699004)
      (xy 1.216193 0.343692)
      (xy 1.441738 0.146202)
      (xy 1.502374 0.118652)
      (xy 1.769473 0.027172)
      (xy 1.972348 -0.026144)
      (xy 2.042625 -0.064155)
      (xy 1.937524 -0.122997)
      (xy 1.771150 -0.175453)
      (xy 1.374473 -0.347008)
      (xy 1.112572 -0.617707)
      (xy 0.978974 -0.941167)
      (xy 2.381743 -0.941167)
      (xy 2.438437 -0.864841)
      (xy 2.607552 -0.743281)
      (xy 2.842227 -0.551042)
      (xy 3.007267 -0.353695)
      (xy 3.026403 -0.317388)
      (xy 3.094246 -0.188682)
      (xy 3.158422 -0.196028)
      (xy 3.265889 -0.353075)
      (xy 3.291030 -0.394308)
      (xy 3.491305 -0.627410)
      (xy 3.728264 -0.787238)
      (xy 3.897351 -0.866266)
      (xy 3.898983 -0.911000)
      (xy 3.800379 -0.939511)
      (xy 3.517218 -1.064187)
      (xy 3.307403 -1.316773)
      (xy 3.224103 -1.484702)
      (xy 3.135702 -1.656997)
      (xy 3.093652 -1.654548)
      (xy 3.086636 -1.593701)
      (xy 3.002968 -1.361941)
      (xy 2.814316 -1.137107)
      (xy 2.587346 -0.987541)
      (xy 2.470516 -0.962121)
      (xy 2.381743 -0.941167)
      (xy 0.978974 -0.941167)
      (xy 0.945215 -1.022901)
      (xy 0.841323 -1.395076)
      (xy 0.718548 -0.983125)
      (xy 0.592759 -0.630547)
      (xy 0.440254 -0.413438)
      (xy 0.206163 -0.276914)
      (xy -0.075069 -0.189273)
      (xy -0.529167 -0.068532)
      (xy -1.608913 -0.068532)
      (xy -1.559246 -0.682252)
      (xy -1.326856 -1.497750)
      (xy -0.929690 -2.278407)
      (xy -0.368282 -3.002770)
      (xy -0.070084 -3.297476)
      (xy 0.432954 -3.756695)
      (xy -0.240530 -3.693165)
      (xy -1.120129 -3.534709)
      (xy -1.869249 -3.236414)
      (xy -2.491825 -2.796139)
      (xy -2.991790 -2.211741)
      (xy -3.008855 -2.186006)
      (xy -3.360754 -1.579372)
      (xy -3.578259 -1.008914)
      (xy -3.684122 -0.399760)
      (xy -3.703990 0.101560)
      (xy -4.991205 0.101560)
      (xy -5.003667 -0.046735)
      (xy -4.908369 -0.949084)
      (xy -4.642124 -1.826719)
      (xy -4.205410 -2.658368)
      (xy -3.598701 -3.422761)
      (xy -3.511728 -3.511728)
      (xy -2.758581 -4.138302)
      (xy -1.936470 -4.595103)
      (xy -1.067010 -4.882132)
      (xy -0.171815 -4.999388)
    )

    (stroke (width 0.000000) (type solid)) (fill solid) (layer "F.SilkS") (tstamp d5a58705-8357-4e63-bb31-85c1f8e5e2b8))
)
